{
    "Version": "2012-10-17",
    "Statement": [
        {
            "Effect": "Allow",
            "Action": [
                  "ecr:GetAuthorizationToken",
                  "ecr:BatchCheckLayerAvailability",
                  "ecr:GetDownloadUrlForLayer",
                  "ecr:GetRepositoryPolicy",
                  "ecr:DescribeRepositories",
                  "ecr:ListImages",
                  "ecr:DescribeImages",
                  "ecr:BatchGetImage",
		  "ecr:InitiateLayerUpload",
		  "ecr:UploadLayerPart",
		  "ecr:CompleteLayerUpload",
		  "ecr:PutImage"
            ],
            "Resource": "*"
        },
        {
            "Effect": "Allow",
            "Action": [
                "ecr:*"
            ],
            "Resource": [
                "arn:aws:ecr:us-east-1:553465401188:repository/poc-frontend"
            ]
        },
        {
            "Effect": "Allow",
            "Action": [
                "ecr:*"
            ],
            "Resource": [
                "arn:aws:ecr:us-east-1:553465401188:repository/poc-backend"
            ]
        }
    ]
}
