{
    "Version": "2012-10-17",
    "Statement": [
        {
          "Effect": "Allow",
          "Action": [
                  "elasticloadbalancing:DeregisterInstancesFromLoadBalancer",
                  "elasticloadbalancing:RegisterInstancesWithLoadBalancer",
                  "ec2:Describe*",
                  "ec2:AuthorizeSecurityGroupIngress",
                  "elasticloadbalancing:DeregisterTargets",
                  "elasticloadbalancing:Describe*",
                  "elasticloadbalancing:RegisterInstancesWithLoadBalancer"
          ],
          "Resource": "*"
        }
     ]
}
